<svg width="315" height="85" viewBox="0 0 315 85" fill="none" xmlns="http://www.w3.org/2000/svg">
<rect width="315" height="85" fill="white"/>
<path d="M23.28 40.248C23.28 43.032 22.464 45.288 20.832 47.016C19.2 48.712 17.008 49.56 14.256 49.56C13.232 49.56 12.336 49.4 11.568 49.08C10.8 48.728 10.416 48.152 10.416 47.352C12.848 47.352 14.64 46.792 15.792 45.672C16.944 44.552 17.52 42.808 17.52 40.44C17.52 38.424 17.024 36.936 16.032 35.976C15.072 34.984 13.584 34.488 11.568 34.488C10.576 34.488 9.552 34.568 8.496 34.728V63H2.88V31.512C6.656 31.256 9.664 31.128 11.904 31.128C15.552 31.128 18.352 31.848 20.304 33.288C22.288 34.696 23.28 37.016 23.28 40.248ZM32.4056 34.248C32.4056 37.736 32.2456 40.296 31.9256 41.928C32.5976 40.488 33.5416 39.4 34.7576 38.664C35.9736 37.928 37.3976 37.56 39.0296 37.56C41.7176 37.56 43.5896 38.312 44.6456 39.816C45.7016 41.288 46.2296 43.544 46.2296 46.584V59.064C46.2296 60.632 46.7256 61.688 47.7176 62.232C47.4616 62.712 47.0456 63.08 46.4696 63.336C45.8936 63.592 45.2856 63.72 44.6456 63.72C43.3976 63.72 42.4696 63.368 41.8616 62.664C41.2536 61.96 40.9496 60.968 40.9496 59.688V47.256C40.9496 45.24 40.7256 43.736 40.2776 42.744C39.8296 41.752 38.8376 41.256 37.3016 41.256C35.3496 41.256 34.0376 42.12 33.3656 43.848C32.7256 45.576 32.4056 47.8 32.4056 50.52V63H27.1256V29.4L32.4056 28.824V34.248ZM71.4885 59.064C71.4885 60.632 71.9845 61.688 72.9765 62.232C72.7205 62.712 72.3365 63.08 71.8245 63.336C71.3445 63.592 70.7845 63.72 70.1445 63.72C69.2165 63.72 68.4485 63.464 67.8405 62.952C67.2325 62.408 66.8645 61.688 66.7365 60.792C66.2245 61.848 65.3925 62.648 64.2405 63.192C63.1205 63.768 61.9045 64.056 60.5925 64.056C58.2885 64.056 56.5285 63.56 55.3125 62.568C54.1285 61.544 53.3445 60.168 52.9605 58.44C52.5765 56.68 52.3845 54.424 52.3845 51.672V38.52H57.6645V51.432C57.6645 53.384 57.7285 55 57.8565 56.28C58.0165 57.528 58.4165 58.6 59.0565 59.496C59.6965 60.392 60.6725 60.84 61.9845 60.84C63.3925 60.84 64.4485 60.312 65.1525 59.256C65.8565 58.168 66.2085 56.824 66.2085 55.224V38.52H71.4885V59.064ZM86.7634 40.392C83.5634 40.392 81.9634 43.88 81.9634 50.856C81.9634 53.704 82.3154 56.008 83.0194 57.768C83.7554 59.496 85.1634 60.36 87.2434 60.36C88.6514 60.36 89.8514 59.992 90.8434 59.256C91.8674 58.488 92.5554 57.416 92.9074 56.04C93.4514 56.296 93.8354 56.6 94.0594 56.952C94.3154 57.272 94.4434 57.72 94.4434 58.296C94.4434 59.448 94.0594 60.472 93.2914 61.368C92.5554 62.232 91.5954 62.888 90.4114 63.336C89.2274 63.816 88.0114 64.056 86.7634 64.056C83.2434 64.056 80.6354 62.92 78.9394 60.648C77.2434 58.344 76.3954 55.256 76.3954 51.384C76.3954 47.256 77.3074 43.928 79.1314 41.4C80.9874 38.84 83.7714 37.56 87.4834 37.56C89.6594 37.56 91.4514 38.008 92.8594 38.904C94.2674 39.8 94.9714 41.176 94.9714 43.032C94.9714 44.12 94.6354 44.952 93.9634 45.528C93.2914 46.104 92.3794 46.392 91.2274 46.392C90.8754 46.392 90.5074 46.344 90.1234 46.248C89.7714 46.152 89.4834 46.024 89.2594 45.864C89.5154 45.096 89.6434 44.376 89.6434 43.704C89.6434 41.496 88.6834 40.392 86.7634 40.392ZM136.784 31.32V63H131.168V36.552L123.488 63H119.744L112.064 36.456V63H107.552V31.32H116L122.384 54.12L128.72 31.32H136.784ZM151.689 37.56C155.273 37.56 157.929 38.728 159.657 41.064C161.385 43.368 162.249 46.488 162.249 50.424C162.249 54.616 161.417 57.944 159.753 60.408C158.089 62.84 155.401 64.056 151.689 64.056C148.041 64.056 145.369 62.888 143.673 60.552C142.009 58.216 141.177 55 141.177 50.904C141.177 46.936 142.041 43.72 143.769 41.256C145.497 38.792 148.137 37.56 151.689 37.56ZM151.689 61.176C153.673 61.176 154.969 60.2 155.577 58.248C156.185 56.296 156.489 53.768 156.489 50.664C156.489 47.816 156.153 45.4 155.481 43.416C154.841 41.432 153.577 40.44 151.689 40.44C148.521 40.44 146.937 43.848 146.937 50.664C146.937 53.768 147.225 56.296 147.801 58.248C148.409 60.2 149.705 61.176 151.689 61.176ZM172.421 34.248C172.421 37.736 172.261 40.296 171.941 41.928C172.549 40.584 173.461 39.528 174.677 38.76C175.893 37.96 177.237 37.56 178.709 37.56C181.749 37.56 183.957 38.776 185.333 41.208C186.709 43.64 187.397 46.712 187.397 50.424C187.397 54.52 186.517 57.816 184.757 60.312C182.997 62.808 180.293 64.056 176.645 64.056C175.077 64.056 173.413 63.848 171.653 63.432C169.925 63.048 168.421 62.504 167.141 61.8V29.4L172.421 28.824V34.248ZM172.421 59.736C173.829 60.696 175.317 61.176 176.885 61.176C178.837 61.176 180.117 60.184 180.725 58.2C181.333 56.216 181.637 53.704 181.637 50.664C181.637 47.944 181.333 45.704 180.725 43.944C180.149 42.152 178.949 41.256 177.125 41.256C175.269 41.256 174.021 42.136 173.381 43.896C172.741 45.624 172.421 47.832 172.421 50.52V59.736ZM194.809 28.44C195.865 28.44 196.713 28.696 197.353 29.208C198.025 29.72 198.361 30.456 198.361 31.416C198.361 32.408 198.009 33.176 197.305 33.72C196.633 34.232 195.753 34.488 194.665 34.488C193.609 34.488 192.761 34.232 192.121 33.72C191.481 33.208 191.161 32.472 191.161 31.512C191.161 30.52 191.497 29.768 192.169 29.256C192.873 28.712 193.753 28.44 194.809 28.44ZM197.305 59.064C197.305 60.632 197.801 61.688 198.793 62.232C198.537 62.712 198.121 63.08 197.545 63.336C196.969 63.592 196.345 63.72 195.673 63.72C194.457 63.72 193.545 63.368 192.937 62.664C192.329 61.96 192.025 60.968 192.025 59.688V38.52H197.305V59.064ZM209.216 28.824V59.064C209.216 60.632 209.712 61.688 210.704 62.232C210.448 62.712 210.016 63.08 209.408 63.336C208.832 63.592 208.224 63.72 207.584 63.72C206.368 63.72 205.456 63.368 204.848 62.664C204.24 61.96 203.936 60.968 203.936 59.688V29.4L209.216 28.824ZM231.39 56.232C232.126 56.584 232.494 57.272 232.494 58.296C232.494 59.448 232.11 60.472 231.342 61.368C230.574 62.232 229.582 62.888 228.366 63.336C227.15 63.816 225.918 64.056 224.67 64.056C221.15 64.056 218.542 62.92 216.846 60.648C215.15 58.344 214.302 55.256 214.302 51.384C214.302 47.256 215.214 43.928 217.038 41.4C218.894 38.84 221.694 37.56 225.438 37.56C227.806 37.56 229.71 38.184 231.15 39.432C232.59 40.648 233.31 42.376 233.31 44.616C233.31 47.4 232.334 49.352 230.382 50.472C228.462 51.592 225.838 52.152 222.51 52.152C221.582 52.152 220.702 52.12 219.87 52.056C219.966 54.584 220.382 56.6 221.118 58.104C221.886 59.608 223.23 60.36 225.15 60.36C226.558 60.36 227.79 60.008 228.846 59.304C229.934 58.568 230.782 57.544 231.39 56.232ZM224.67 40.296C222.942 40.296 221.726 41.208 221.022 43.032C220.318 44.824 219.934 47.032 219.87 49.656C220.83 49.72 221.534 49.752 221.982 49.752C226.014 49.752 228.03 48.136 228.03 44.904C228.03 43.592 227.742 42.504 227.166 41.64C226.622 40.744 225.79 40.296 224.67 40.296Z" fill="#C10B0B"/>
<g filter="url(#filter0_d)">
<path d="M285.642 5.81086L259.279 1.19182C256.16 0.645372 253.145 2.93141 252.548 6.29552L243.177 59.1058C242.58 62.4699 244.626 65.6427 247.745 66.1891L274.108 70.8082C277.227 71.3546 280.242 69.0686 280.839 65.7045L290.21 12.8942C290.807 9.53004 288.761 6.35731 285.642 5.81086ZM261.647 64.4363C259.564 64.0713 258.203 61.9611 258.602 59.7141C259.001 57.4671 261.006 55.9467 263.089 56.3116C265.172 56.6766 266.533 58.7869 266.134 61.0338C265.735 63.2808 263.73 64.8013 261.647 64.4363ZM277.262 53.0355C277.113 53.8733 276.356 54.4475 275.579 54.3114L252.04 50.1872C251.264 50.0511 250.75 49.2543 250.898 48.4164L257.927 8.80869C258.076 7.97084 258.833 7.39667 259.61 7.53277L283.148 11.6569C283.925 11.793 284.439 12.5899 284.29 13.4277L277.262 53.0355Z" fill="#03221E"/>
</g>
<defs>
<filter id="filter0_d" x="239.073" y="1.11111" width="55.2402" height="77.7778" filterUnits="userSpaceOnUse" color-interpolation-filters="sRGB">
<feFlood flood-opacity="0" result="BackgroundImageFix"/>
<feColorMatrix in="SourceAlpha" type="matrix" values="0 0 0 0 0 0 0 0 0 0 0 0 0 0 0 0 0 0 127 0" result="hardAlpha"/>
<feOffset dy="4"/>
<feGaussianBlur stdDeviation="2"/>
<feColorMatrix type="matrix" values="0 0 0 0 0 0 0 0 0 0 0 0 0 0 0 0 0 0 0.25 0"/>
<feBlend mode="normal" in2="BackgroundImageFix" result="effect1_dropShadow"/>
<feBlend mode="normal" in="SourceGraphic" in2="effect1_dropShadow" result="shape"/>
</filter>
</defs>
</svg>
